{
  "dependencies": {
    "apis1": {
      "type": "apis"
    },
    "secrets1": {
      "type": "secrets",
      "connectionId": "VaultUri"
    },
    "secrets2": {
      "type": "secrets",
      "connectionId": "VaultUri",
      "dynamicId": null
    }
  }
}